11111111111111111111111111111111111111111
10000000000000000011000000000000001111111
10000000000000000111110000000000000111111
10000000000000000111111000000000000111111
10000000000000000111111000000000000011111
10000000000000000111111100000000000011111
10000000000000000111111100000000000011111
10000000000000000111111100000000000111111
10000000000000000111111110000000001111111
10000000000111000011111110000000011111111
10001111000111000011111110000000111111111
10111111100111100011111110000001111111111
11111111100111100011111110000001111111111
11111011100111110011111110000001111111111
11100000000011110011111100000001111111111
10000000000011110011111100000001111111111
10000000000011110001111100000001111111111
10000000000011110000111100000000111111001
10000000000011100000111001111100111110001
40000000000111100000000011111100000000005
10000000001111100000000111111110000000001
10000000011111100000001111111100000000001
10000011111111100000001111111100000000001
10000011111111100000001111111100000000001
10000011111111100000001111111000000000001
10000000001111100000000111110000000000001
10000000011111100000000000000000000000001
10000011111111000000000000000000000000001
10000111111110000000111000000000000000001
10000111110000000011111100000000000000001
10000111000000000111111100001111000000001
11110000000000000111111100111111000000001
11110000000000001111111101111111000000011
11110000000000011111111101111111000000111
10000000000000011111111001111111000011111
10111110000000011111111001111111000111111
10111111000000011111100000000000001111111
10111111110000001100000000000000011111111
10111111111000000000000000000001111111111
10111111111000000000000000000001111111111
11111111111111111111111111111111111111111
