4
4
5
5
5
3
3
3
3
3
3
3
3
3
3
5
5
5
5
5
3
3
2
1
3
3
3
3
3
3
3
3
3
3
3
3
3
3
3
3
3
3
3
2
2
3
3
3
3
3
3
3
3
3
3
3
3
3
3
3
3
3
3
3
3
3
3
3
3
3
3
3
3
3
3