000000000000000000000000000000000000000000000000000000000000000000000000000000000000000000000000000
000000000000000000000000000000000000000000000000000000000000000000000000000000000000000000000000000
000000000000000000000000000000000000000000000000000000000000000000000000000000000000000000000000000
000000000000000000000000000000000000000001111111111111111111111000000000000000000000000000000000000
000000000000000000000000000000000000000001111111111111111111111000000000000000000000000000000000000
000000000000000000000000000000000000000001111111111111111111111000000000000000000000000000000000000
000000000000000000000000000000000000000000000000000000000000111000000000000000000000000000000000000
000000000000000000000000000000000000000000000000001111111100111000000000000000000000000000000000000
000000000000000000000000000000000000000000000000001111111100111000000000000000000000000000000000000
000000000000000000000000000000000000000000000000001111111100111000000000000000000000000000000000000
000000000000000000000000000000000000000000000000001111111100111000000000000000000000000000000000000
000000000000000000000000000000000000000000000000001111111100111000000000000000000000000000000000000
000000000000000000000000000000000000000000000000001111111100111000000000000000000000000000000000000
000000000000000000000000004000000000000000000000000000000000111000000000500000000000000000000000000
000000000000000000000000000000000000000000000000001111111100111000000000000000000000000000000000000
000000000000000000000000000000000000000000000000001111111100111000000000000000000000000000000000000
000000000000000000000000000000000000000000000000001111111100111000000000000000000000000000000000000
000000000000000000000000000000000000000000000000001111111100111000000000000000000000000000000000000
000000000000000000000000000000000000000000000000001111111100111000000000000000000000000000000000000
000000000000000000000000000000000000000000000000000000000000111000000000000000000000000000000000000
000000000000000000000000000000000000000011111111111111111111111000000000000000000000000000000000000
000000000000000000000000000000000000000011111111111111111111111000000000000000000000000000000000000
000000000000000000000000000000000000000011111111111111111111111000000000000000000000000000000000000
000000000000000000000000000000000000000000000000000000000000000000000000000000000000000000000000000
000000000000000000000000000000000000000000000000000000000000000000000000000000000000000000000000000
000000000000000000000000000000000000000000000000000000000000000000000000000000000000000000000000000